<svg width="36" height="36" viewBox="0 0 36 36" fill="none" xmlns="http://www.w3.org/2000/svg">
    <path d="M35.5 18C35.5 27.665 27.665 35.5 18 35.5C8.335 35.5 0.499982 27.665 0.499982 18C0.499982 8.33501 8.335 0.499982 18 0.499982C27.665 0.499982 35.5 8.33501 35.5 18Z" stroke="white"/>
    <path d="M26.4689 9.57595C26.3064 9.39303 26.0499 9.34398 25.8375 9.43728L8.15561 17.219C7.95972 17.3053 7.83096 17.4982 7.82619 17.7136C7.82142 17.9286 7.94138 18.127 8.1336 18.2221L12.3556 20.3096L13.4077 26.6551C13.4418 26.896 13.63 27.0896 13.8751 27.1246C14.0512 27.1501 14.2262 27.0878 14.3472 26.9624L17.6804 23.6114L22.4369 27.0273C22.5895 27.1364 22.7861 27.1604 22.9593 27.0914C23.1328 27.0225 23.2597 26.8694 23.2964 26.6854L26.598 10.0524C26.6306 9.88759 26.5885 9.71093 26.4689 9.57595ZM12.7914 19.292L9.68242 17.7549L21.9651 12.3493L12.7914 19.292ZM14.5134 20.9365L14.0017 23.5089L13.4496 20.1786L20.1984 15.0711L14.6634 20.6544C14.5857 20.7326 14.5339 20.8344 14.5134 20.9365ZM14.8483 24.8938L15.4257 21.9924L16.7724 22.9594L14.8483 24.8938ZM22.3837 25.6291L15.9004 20.9738L25.1622 11.6317L22.3837 25.6291Z" fill="white"/>
</svg>
